team.Rmd (ds202_lab3)
…
library(readxl)
# setting dat and column names
dat <- readxl::read_xls('/Users/jaydoncobb/Desktop/DS202/ds202_lab3/GSS.xls')

## Warning in read_fun(path = enc2native(normalizePath(path)), sheet_i = sheet, :
## Expecting numeric in A64817 / R64817C1: got 'Source'

## Warning in read_fun(path = enc2native(normalizePath(path)), sheet_i = sheet, : Expecting numeric in B64817 / R64817C2: got 'Data collection: General Social Survey
## Case Selection: all cases'

names(dat) <- c("year", "ID_NUM", "marital_status", "sex", "political_affil", "happiness", "ballot_used")
print(dat)

## # A tibble: 64,816 x 7
##     year ID_NUM marital_status sex    political_affil  happiness   ballot_used  
##    <dbl>  <dbl> <chr>          <chr>  <chr>            <chr>       <chr>        
##  1  1972      1 Never married  Female Ind,near dem     Not too ha Not applicab
##  2  1972      2 Married        Male   Not str democrat Not too ha Not applicab
##  3  1972      3 Married        Female Independent      Pretty hap Not applicab
##  4  1972      4 Married        Female Not str democrat Not too ha Not applicab
##  5  1972      5 Married        Female Strong democrat  Pretty hap Not applicab
##  6  1972      6 Never married  Male   Ind,near dem     Pretty hap Not applicab
##  7  1972      7 Divorced       Male   Ind,near dem     Not too ha Not applicab
##  8  1972      8 Never married  Male   Ind,near dem     Not too ha Not applicab
##  9  1972      9 Never married  Female Strong democrat  Pretty hap Not applicab
## 10  1972     10 Married        Female Strong democrat  Pretty hap Not applicab
## #  with 64,806 more rows
…
